\relax 
\providecommand\hyper@newdestlabel[2]{}
\@writefile{toc}{\contentsline {section}{\numberline {Exercise 10:}Limits of Real Functions}{1}{section.0.1}\protected@file@percent }
\@writefile{lof}{\contentsline {figure}{\numberline {1}{\ignorespaces $f\left ( x \right )=\frac  {1}{x}$ for $x\in \left [ -5,5 \right ]$.\relax }}{1}{figure.caption.1}\protected@file@percent }
\providecommand*\caption@xref[2]{\@setref\relax\@undefined{#1}}
\newlabel{fig:one_over_x}{{1}{1}{$f\left ( x \right )=\frac {1}{x}$ for $x\in \left [ -5,5 \right ]$.\relax }{figure.caption.1}{}}
\@writefile{lof}{\contentsline {figure}{\numberline {2}{\ignorespaces $f\left ( x \right )=\frac  {1}{x^{2}}$ for $x\in \left [ -5,5 \right ]$.\relax }}{2}{figure.caption.2}\protected@file@percent }
\newlabel{fig:one_over_x_square}{{2}{2}{$f\left ( x \right )=\frac {1}{x^{2}}$ for $x\in \left [ -5,5 \right ]$.\relax }{figure.caption.2}{}}
\@writefile{lof}{\contentsline {figure}{\numberline {3}{\ignorespaces The function $\qopname  \relax o{sin}\left ( \frac  {1}{x} \right )$ graphed for $x\in \left [ -0.01,0.01 \right ]$.\relax }}{3}{figure.caption.3}\protected@file@percent }
\newlabel{fig:sine_one_over_x}{{3}{3}{The function $\sin \left ( \frac {1}{x} \right )$ graphed for $x\in \left [ -0.01,0.01 \right ]$.\relax }{figure.caption.3}{}}
\@writefile{lof}{\contentsline {figure}{\numberline {4}{\ignorespaces Graphing both $\color {col1!75}e^{x}$ and $\color {col2!75}e^{-x}$ for $x\in \left [ -3,3 \right ]$.\relax }}{4}{figure.caption.4}\protected@file@percent }
\newlabel{fig:exponents}{{4}{4}{Graphing both $\color {col1!75}e^{x}$ and $\color {col2!75}e^{-x}$ for $x\in \left [ -3,3 \right ]$.\relax }{figure.caption.4}{}}
\@writefile{lof}{\contentsline {figure}{\numberline {5}{\ignorespaces Graph of $\qopname  \relax o{log}\left ( x \right )$ for $x\in \left ( 0, 5\right ]$.\relax }}{4}{figure.caption.5}\protected@file@percent }
\newlabel{fig:log}{{5}{4}{Graph of $\log \left ( x \right )$ for $x\in \left ( 0, 5\right ]$.\relax }{figure.caption.5}{}}
\@setckpt{source/ex10}{
\setcounter{page}{5}
\setcounter{equation}{0}
\setcounter{enumi}{7}
\setcounter{enumii}{0}
\setcounter{enumiii}{0}
\setcounter{enumiv}{0}
\setcounter{footnote}{1}
\setcounter{mpfootnote}{0}
\setcounter{part}{0}
\setcounter{chapter}{0}
\setcounter{section}{1}
\setcounter{subsection}{0}
\setcounter{subsubsection}{0}
\setcounter{paragraph}{0}
\setcounter{subparagraph}{0}
\setcounter{figure}{5}
\setcounter{table}{0}
\setcounter{pp@next@reset}{0}
\setcounter{Item}{7}
\setcounter{Hfootnote}{1}
\setcounter{bookmark@seq@number}{1}
\setcounter{parentequation}{0}
\setcounter{float@type}{32}
\setcounter{caption@flags}{0}
\setcounter{continuedfloat}{0}
\setcounter{subfigure}{0}
\setcounter{subtable}{0}
\setcounter{tcbbreakpart}{2}
\setcounter{tcblayer}{0}
\setcounter{tcbrastercolumn}{0}
\setcounter{tcbrasterrow}{0}
\setcounter{tcbraster}{0}
\setcounter{lstnumber}{1}
\setcounter{tcblisting}{0}
\setcounter{FancyVerbLine}{0}
\setcounter{linenumber}{1}
\setcounter{LN@truepage}{4}
\setcounter{FV@TrueTabGroupLevel}{0}
\setcounter{FV@TrueTabCounter}{0}
\setcounter{FV@HighlightLinesStart}{0}
\setcounter{FV@HighlightLinesStop}{0}
\setcounter{FancyVerbLineBreakLast}{0}
\setcounter{minted@FancyVerbLineTemp}{0}
\setcounter{minted@pygmentizecounter}{0}
\setcounter{listing}{0}
\setcounter{currfiledepth}{0}
\setcounter{pytx@FancyVerbLineTemp}{0}
\setcounter{pytx@py@default@default}{0}
\setcounter{pytx@pycon@default@default}{0}
\setcounter{pytx@sympy@default@default}{0}
\setcounter{pytx@sympycon@default@default}{0}
\setcounter{pytx@pylab@default@default}{0}
\setcounter{pytx@pylabcon@default@default}{0}
\setcounter{section@level}{0}
\setcounter{lstlisting}{0}
}
