\relax 
\providecommand\hyper@newdestlabel[2]{}
\@writefile{toc}{\contentsline {section}{\numberline {Exercise 11:}Derivatives of Real Functions}{1}{section.0.1}\protected@file@percent }
\@writefile{lof}{\contentsline {figure}{\numberline {1}{\ignorespaces Graphing $ \color {col1!85!black}{x^{2}}\color {black} ,\  \color {col2!75!black}{x^{2}+3}\color {black} $ and $ \color {col3!75!black}{x^{2}-5}\color {black} $ for $x\in \left [ -4,4 \right ]$.\relax }}{1}{figure.caption.1}\protected@file@percent }
\providecommand*\caption@xref[2]{\@setref\relax\@undefined{#1}}
\newlabel{fig:parabolas1}{{1}{1}{Graphing $\rcolor {col1!85!black}{x^{2}},\ \rcolor {col2!75!black}{x^{2}+3}$ and $\rcolor {col3!75!black}{x^{2}-5}$ for $x\in \left [ -4,4 \right ]$.\relax }{figure.caption.1}{}}
\@writefile{lof}{\contentsline {figure}{\numberline {2}{\ignorespaces Graphing $ \color {col1!85!black}{-x^{2}}\color {black} ,\  \color {col2!75!black}{x^{2}-2x}\color {black} $ and $ \color {col3!75!black}{x^{2}-3x+5}\color {black} $ for $x\in \left [ -4,4 \right ]$.\relax }}{1}{figure.caption.2}\protected@file@percent }
\newlabel{fig:parabolas2}{{2}{1}{Graphing $\rcolor {col1!85!black}{-x^{2}},\ \rcolor {col2!75!black}{x^{2}-2x}$ and $\rcolor {col3!75!black}{x^{2}-3x+5}$ for $x\in \left [ -4,4 \right ]$.\relax }{figure.caption.2}{}}
\newlabel{eq:xt}{{3}{7}{Derivatives of Real Functions}{equation.0.1.3}{}}
\newlabel{eq:vt}{{4}{7}{Derivatives of Real Functions}{equation.0.1.4}{}}
\newlabel{eq:pos}{{6}{8}{Derivatives of Real Functions}{equation.0.1.6}{}}
\newlabel{eq:v0}{{8}{8}{Derivatives of Real Functions}{equation.0.1.8}{}}
\newlabel{eq:yt}{{9}{8}{Derivatives of Real Functions}{equation.0.1.9}{}}
\newlabel{eq:t}{{10}{8}{Derivatives of Real Functions}{equation.0.1.10}{}}
\newlabel{eq:t2}{{11}{8}{Derivatives of Real Functions}{equation.0.1.11}{}}
\newlabel{eq:xt2}{{12}{8}{Derivatives of Real Functions}{equation.0.1.12}{}}
\newlabel{eq:diff}{{13}{8}{Derivatives of Real Functions}{equation.0.1.13}{}}
\newlabel{eq:ang}{{14}{8}{Derivatives of Real Functions}{equation.0.1.14}{}}
\newlabel{eq:dxdq2}{{15}{8}{Derivatives of Real Functions}{equation.0.1.15}{}}
\newlabel{eq:ds}{{16}{8}{Derivatives of Real Functions}{equation.0.1.16}{}}
\@setckpt{source/ex11}{
\setcounter{page}{9}
\setcounter{equation}{16}
\setcounter{enumi}{4}
\setcounter{enumii}{2}
\setcounter{enumiii}{0}
\setcounter{enumiv}{0}
\setcounter{footnote}{2}
\setcounter{mpfootnote}{0}
\setcounter{part}{0}
\setcounter{chapter}{0}
\setcounter{section}{1}
\setcounter{subsection}{0}
\setcounter{subsubsection}{0}
\setcounter{paragraph}{0}
\setcounter{subparagraph}{0}
\setcounter{figure}{2}
\setcounter{table}{0}
\setcounter{pp@next@reset}{0}
\setcounter{Item}{17}
\setcounter{Hfootnote}{2}
\setcounter{bookmark@seq@number}{1}
\setcounter{parentequation}{0}
\setcounter{float@type}{32}
\setcounter{caption@flags}{0}
\setcounter{continuedfloat}{0}
\setcounter{subfigure}{0}
\setcounter{subtable}{0}
\setcounter{tcbbreakpart}{2}
\setcounter{tcblayer}{0}
\setcounter{tcbrastercolumn}{0}
\setcounter{tcbrasterrow}{0}
\setcounter{tcbraster}{0}
\setcounter{lstnumber}{1}
\setcounter{tcblisting}{0}
\setcounter{FancyVerbLine}{0}
\setcounter{linenumber}{1}
\setcounter{LN@truepage}{8}
\setcounter{FV@TrueTabGroupLevel}{0}
\setcounter{FV@TrueTabCounter}{0}
\setcounter{FV@HighlightLinesStart}{0}
\setcounter{FV@HighlightLinesStop}{0}
\setcounter{FancyVerbLineBreakLast}{0}
\setcounter{minted@FancyVerbLineTemp}{0}
\setcounter{minted@pygmentizecounter}{0}
\setcounter{listing}{0}
\setcounter{currfiledepth}{0}
\setcounter{pytx@FancyVerbLineTemp}{0}
\setcounter{pytx@py@default@default}{0}
\setcounter{pytx@pycon@default@default}{0}
\setcounter{pytx@sympy@default@default}{0}
\setcounter{pytx@sympycon@default@default}{0}
\setcounter{pytx@pylab@default@default}{0}
\setcounter{pytx@pylabcon@default@default}{0}
\setcounter{section@level}{0}
\setcounter{lstlisting}{0}
}
