\relax 
\providecommand\hyper@newdestlabel[2]{}
\@writefile{toc}{\contentsline {section}{\numberline {Exercise 6:}Basics of computer science, part I}{1}{section.0.1}\protected@file@percent }
\@writefile{toc}{\contentsline {subsection}{\numberline {Problem 1:}Data Representation}{1}{subsection.0.1.1}\protected@file@percent }
\@writefile{toc}{\contentsline {subsection}{\numberline {Problem 2:}Number Bases}{1}{subsection.0.1.2}\protected@file@percent }
\@setckpt{source/ex6}{
\setcounter{page}{4}
\setcounter{equation}{0}
\setcounter{enumi}{7}
\setcounter{enumii}{0}
\setcounter{enumiii}{0}
\setcounter{enumiv}{0}
\setcounter{footnote}{1}
\setcounter{mpfootnote}{0}
\setcounter{part}{0}
\setcounter{chapter}{0}
\setcounter{section}{1}
\setcounter{subsection}{2}
\setcounter{subsubsection}{0}
\setcounter{paragraph}{0}
\setcounter{subparagraph}{0}
\setcounter{figure}{0}
\setcounter{table}{0}
\setcounter{pp@next@reset}{0}
\setcounter{Item}{12}
\setcounter{Hfootnote}{1}
\setcounter{bookmark@seq@number}{3}
\setcounter{parentequation}{0}
\setcounter{float@type}{32}
\setcounter{caption@flags}{0}
\setcounter{continuedfloat}{0}
\setcounter{subfigure}{0}
\setcounter{subtable}{0}
\setcounter{tcbbreakpart}{1}
\setcounter{tcblayer}{0}
\setcounter{tcbrastercolumn}{0}
\setcounter{tcbrasterrow}{0}
\setcounter{tcbraster}{0}
\setcounter{lstnumber}{1}
\setcounter{tcblisting}{0}
\setcounter{FancyVerbLine}{0}
\setcounter{linenumber}{1}
\setcounter{LN@truepage}{3}
\setcounter{FV@TrueTabGroupLevel}{0}
\setcounter{FV@TrueTabCounter}{0}
\setcounter{FV@HighlightLinesStart}{0}
\setcounter{FV@HighlightLinesStop}{0}
\setcounter{FancyVerbLineBreakLast}{0}
\setcounter{minted@FancyVerbLineTemp}{0}
\setcounter{minted@pygmentizecounter}{0}
\setcounter{listing}{0}
\setcounter{currfiledepth}{0}
\setcounter{pytx@FancyVerbLineTemp}{0}
\setcounter{pytx@py@default@default}{2}
\setcounter{pytx@pycon@default@default}{0}
\setcounter{pytx@sympy@default@default}{0}
\setcounter{pytx@sympycon@default@default}{0}
\setcounter{pytx@pylab@default@default}{0}
\setcounter{pytx@pylabcon@default@default}{0}
\setcounter{section@level}{0}
\setcounter{lstlisting}{0}
\setcounter{pytx@py@default@default@line}{0}
}
