\relax 
\providecommand\hyper@newdestlabel[2]{}
\@writefile{toc}{\contentsline {section}{\numberline {Exercise 7:}Basics of computer science, part II}{1}{section.0.1}\protected@file@percent }
\@writefile{toc}{\contentsline {subsection}{\numberline {Problem 1:}Binary Arithmetic}{1}{subsection.0.1.1}\protected@file@percent }
\@writefile{toc}{\contentsline {subsection}{\numberline {Problem 2:}Floating Point}{1}{subsection.0.1.2}\protected@file@percent }
\@writefile{toc}{\contentsline {subsection}{\numberline {Problem 3:}Data Representation}{2}{subsection.0.1.3}\protected@file@percent }
\@writefile{toc}{\contentsline {subsection}{\numberline {Problem 4:}SQL Databases}{3}{subsection.0.1.4}\protected@file@percent }
\@writefile{lol}{\contentsline {lstlisting}{sql/users\textunderscore table.sql}{3}{lstlisting.0.-1}\protected@file@percent }
\@writefile{lol}{\contentsline {lstlisting}{sql/users\textunderscore table.sql}{3}{lstlisting.0.-2}\protected@file@percent }
\@writefile{lol}{\contentsline {lstlisting}{sql/users\textunderscore table.sql}{4}{lstlisting.0.-3}\protected@file@percent }
\@writefile{lol}{\contentsline {lstlisting}{sql/users\textunderscore table.sql}{4}{lstlisting.0.-4}\protected@file@percent }
\@writefile{lol}{\contentsline {lstlisting}{sql/users\textunderscore table.sql}{4}{lstlisting.0.-5}\protected@file@percent }
\@writefile{lol}{\contentsline {lstlisting}{sql/users\textunderscore table.sql}{4}{lstlisting.0.-6}\protected@file@percent }
\@setckpt{source/ex7}{
\setcounter{page}{5}
\setcounter{equation}{0}
\setcounter{enumi}{6}
\setcounter{enumii}{3}
\setcounter{enumiii}{0}
\setcounter{enumiv}{0}
\setcounter{footnote}{0}
\setcounter{mpfootnote}{0}
\setcounter{part}{0}
\setcounter{chapter}{0}
\setcounter{section}{1}
\setcounter{subsection}{4}
\setcounter{subsubsection}{0}
\setcounter{paragraph}{0}
\setcounter{subparagraph}{0}
\setcounter{figure}{0}
\setcounter{table}{0}
\setcounter{pp@next@reset}{0}
\setcounter{Item}{23}
\setcounter{Hfootnote}{1}
\setcounter{bookmark@seq@number}{5}
\setcounter{parentequation}{0}
\setcounter{float@type}{32}
\setcounter{caption@flags}{0}
\setcounter{continuedfloat}{0}
\setcounter{subfigure}{0}
\setcounter{subtable}{0}
\setcounter{tcbbreakpart}{1}
\setcounter{tcblayer}{0}
\setcounter{tcbrastercolumn}{0}
\setcounter{tcbrasterrow}{0}
\setcounter{tcbraster}{0}
\setcounter{lstnumber}{3}
\setcounter{tcblisting}{0}
\setcounter{FancyVerbLine}{0}
\setcounter{linenumber}{1}
\setcounter{LN@truepage}{4}
\setcounter{FV@TrueTabGroupLevel}{0}
\setcounter{FV@TrueTabCounter}{0}
\setcounter{FV@HighlightLinesStart}{0}
\setcounter{FV@HighlightLinesStop}{0}
\setcounter{FancyVerbLineBreakLast}{0}
\setcounter{minted@FancyVerbLineTemp}{0}
\setcounter{minted@pygmentizecounter}{0}
\setcounter{listing}{0}
\setcounter{currfiledepth}{0}
\setcounter{pytx@FancyVerbLineTemp}{0}
\setcounter{pytx@py@default@default}{4}
\setcounter{pytx@pycon@default@default}{0}
\setcounter{pytx@sympy@default@default}{0}
\setcounter{pytx@sympycon@default@default}{0}
\setcounter{pytx@pylab@default@default}{0}
\setcounter{pytx@pylabcon@default@default}{0}
\setcounter{section@level}{0}
\setcounter{lstlisting}{0}
\setcounter{pytx@py@default@default@line}{0}
}
